Library\Bee\artifacts\mvdfrm\Unity.Services.Core.Internal.ref.dll_45285F9C4B4C0270.mvfrm
Library\Bee\artifacts\mvdfrm\Unity.Services.Core.ref.dll_8B79153BEDCD5611.mvfrm
Library\Bee\artifacts\mvdfrm\UnityEditor.UI.ref.dll_0174E068A5FA251B.mvfrm
Library\Bee\artifacts\mvdfrm\UnityEngine.UI.ref.dll_BDDAB6C3AC1C4D86.mvfrm
Library\Bee\artifacts\mvdfrm\UnityEditor.Graphs.dll_4898567A660E6350.mvfrm
Library\Bee\artifacts\mvdfrm\UnityEditor.CoreModule.dll_CA2244C03318771E.mvfrm
Library\Bee\artifacts\mvdfrm\UnityEditor.DeviceSimulatorModule.dll_AEC32A86C2CB1303.mvfrm
Library\Bee\artifacts\mvdfrm\UnityEditor.DiagnosticsModule.dll_D4DF355F5F464C91.mvfrm
Library\Bee\artifacts\mvdfrm\UnityEditor.dll_39F47AE018894817.mvfrm
Library\Bee\artifacts\mvdfrm\UnityEditor.GraphViewModule.dll_7029CA48BD760848.mvfrm
Library\Bee\artifacts\mvdfrm\UnityEditor.PackageManagerUIModule.dll_E22AAB7A28E0CAFA.mvfrm
Library\Bee\artifacts\mvdfrm\UnityEditor.QuickSearchModule.dll_5FEEB66CB81D48EA.mvfrm
Library\Bee\artifacts\mvdfrm\UnityEditor.SceneTemplateModule.dll_0BD2A5F4761128AB.mvfrm
Library\Bee\artifacts\mvdfrm\UnityEditor.TextCoreFontEngineModule.dll_7275BA05090CEEDC.mvfrm
Library\Bee\artifacts\mvdfrm\UnityEditor.TextCoreTextEngineModule.dll_BA5DF0769890A7FA.mvfrm
Library\Bee\artifacts\mvdfrm\UnityEditor.UIBuilderModule.dll_C4B27765302E817C.mvfrm
Library\Bee\artifacts\mvdfrm\UnityEditor.UIElementsModule.dll_0F790C5C06F5BD9A.mvfrm
Library\Bee\artifacts\mvdfrm\UnityEditor.UIElementsSamplesModule.dll_74DF2C56B913FB73.mvfrm
Library\Bee\artifacts\mvdfrm\UnityEditor.UIServiceModule.dll_FDA488C81965D196.mvfrm
Library\Bee\artifacts\mvdfrm\UnityEditor.UnityConnectModule.dll_54B15354BCAAB4D4.mvfrm
Library\Bee\artifacts\mvdfrm\UnityEngine.AccessibilityModule.dll_3E78118B76875048.mvfrm
Library\Bee\artifacts\mvdfrm\UnityEngine.AIModule.dll_896D5D933ED18DB2.mvfrm
Library\Bee\artifacts\mvdfrm\UnityEngine.AndroidJNIModule.dll_8DC1F52F50152C70.mvfrm
Library\Bee\artifacts\mvdfrm\UnityEngine.AnimationModule.dll_3EAF467197D2DCEE.mvfrm
Library\Bee\artifacts\mvdfrm\UnityEngine.ARModule.dll_42E022969BEEEC7B.mvfrm
Library\Bee\artifacts\mvdfrm\UnityEngine.AssetBundleModule.dll_A3D7E95E1A83FDDC.mvfrm
Library\Bee\artifacts\mvdfrm\UnityEngine.AudioModule.dll_C15795AAC39E5260.mvfrm
Library\Bee\artifacts\mvdfrm\UnityEngine.ClothModule.dll_283FF2A59DBB3144.mvfrm
Library\Bee\artifacts\mvdfrm\UnityEngine.CoreModule.dll_ED431812DB1DE249.mvfrm
Library\Bee\artifacts\mvdfrm\UnityEngine.CrashReportingModule.dll_71E0D41499A63D81.mvfrm
Library\Bee\artifacts\mvdfrm\UnityEngine.DirectorModule.dll_DFE71A715DF7FAA6.mvfrm
Library\Bee\artifacts\mvdfrm\UnityEngine.dll_6C98C1B876FCD4FC.mvfrm
Library\Bee\artifacts\mvdfrm\UnityEngine.DSPGraphModule.dll_E5387BDAD058CBC7.mvfrm
Library\Bee\artifacts\mvdfrm\UnityEngine.GameCenterModule.dll_B80F3F4A16561D61.mvfrm
Library\Bee\artifacts\mvdfrm\UnityEngine.GIModule.dll_21A9A6A0DA8075CC.mvfrm
Library\Bee\artifacts\mvdfrm\UnityEngine.GridModule.dll_CAB43400F3727840.mvfrm
Library\Bee\artifacts\mvdfrm\UnityEngine.HotReloadModule.dll_BFF804777305F870.mvfrm
Library\Bee\artifacts\mvdfrm\UnityEngine.ImageConversionModule.dll_2061EAA8B4AAD87B.mvfrm
Library\Bee\artifacts\mvdfrm\UnityEngine.IMGUIModule.dll_F9B7351189CFE641.mvfrm
Library\Bee\artifacts\mvdfrm\UnityEngine.InputLegacyModule.dll_351D047CB275B3CD.mvfrm
Library\Bee\artifacts\mvdfrm\UnityEngine.InputModule.dll_27CD5D5B39D67704.mvfrm
Library\Bee\artifacts\mvdfrm\UnityEngine.JSONSerializeModule.dll_9E8F9AC775C2B0D2.mvfrm
Library\Bee\artifacts\mvdfrm\UnityEngine.LocalizationModule.dll_129A92BD05AE7A93.mvfrm
Library\Bee\artifacts\mvdfrm\UnityEngine.ParticleSystemModule.dll_C4F31D6107B7C90F.mvfrm
Library\Bee\artifacts\mvdfrm\UnityEngine.PerformanceReportingModule.dll_B9A249B222280008.mvfrm
Library\Bee\artifacts\mvdfrm\UnityEngine.Physics2DModule.dll_8B55366238CFD483.mvfrm
Library\Bee\artifacts\mvdfrm\UnityEngine.PhysicsModule.dll_8CF375E40D920931.mvfrm
Library\Bee\artifacts\mvdfrm\UnityEngine.ProfilerModule.dll_122D53A7F75181B3.mvfrm
Library\Bee\artifacts\mvdfrm\UnityEngine.RuntimeInitializeOnLoadManagerInitializerModule.dll_2D7FB20296E6CB4C.mvfrm
Library\Bee\artifacts\mvdfrm\UnityEngine.ScreenCaptureModule.dll_B877484C8A2EDD34.mvfrm
Library\Bee\artifacts\mvdfrm\UnityEngine.SharedInternalsModule.dll_A473297E2BD8D3CB.mvfrm
Library\Bee\artifacts\mvdfrm\UnityEngine.SpriteMaskModule.dll_A13BB1DA37C5B2DB.mvfrm
Library\Bee\artifacts\mvdfrm\UnityEngine.SpriteShapeModule.dll_BD3916B8D02635E6.mvfrm
Library\Bee\artifacts\mvdfrm\UnityEngine.StreamingModule.dll_F34433C1E75A942C.mvfrm
Library\Bee\artifacts\mvdfrm\UnityEngine.SubstanceModule.dll_CFEF480B32AD923A.mvfrm
Library\Bee\artifacts\mvdfrm\UnityEngine.SubsystemsModule.dll_0BE9183C060D9AEE.mvfrm
Library\Bee\artifacts\mvdfrm\UnityEngine.TerrainModule.dll_A739F152E350521F.mvfrm
Library\Bee\artifacts\mvdfrm\UnityEngine.TerrainPhysicsModule.dll_C56DC63420FAC39C.mvfrm
Library\Bee\artifacts\mvdfrm\UnityEngine.TextCoreFontEngineModule.dll_F0D535581C0AADA7.mvfrm
Library\Bee\artifacts\mvdfrm\UnityEngine.TextCoreTextEngineModule.dll_38BD6BC9AB8E66C5.mvfrm
Library\Bee\artifacts\mvdfrm\UnityEngine.TextRenderingModule.dll_E1B6BA5741665D29.mvfrm
Library\Bee\artifacts\mvdfrm\UnityEngine.TilemapModule.dll_463658D3FB0D3328.mvfrm
Library\Bee\artifacts\mvdfrm\UnityEngine.TLSModule.dll_1C95CC964A6125C5.mvfrm
Library\Bee\artifacts\mvdfrm\UnityEngine.UIElementsModule.dll_102779A40939D6E5.mvfrm
Library\Bee\artifacts\mvdfrm\UnityEngine.UIElementsNativeModule.dll_2CA4600F9A593B1C.mvfrm
Library\Bee\artifacts\mvdfrm\UnityEngine.UIModule.dll_84E0FBC09B18935E.mvfrm
Library\Bee\artifacts\mvdfrm\UnityEngine.UmbraModule.dll_3C2C41C350C4FDD3.mvfrm
Library\Bee\artifacts\mvdfrm\UnityEngine.UNETModule.dll_7FE95FFC282CD7C2.mvfrm
Library\Bee\artifacts\mvdfrm\UnityEngine.UnityAnalyticsModule.dll_E4928E2AB3DF1B0B.mvfrm
Library\Bee\artifacts\mvdfrm\UnityEngine.UnityConnectModule.dll_4210D763B732B57F.mvfrm
Library\Bee\artifacts\mvdfrm\UnityEngine.UnityCurlModule.dll_71CBE7A307E6CEDB.mvfrm
Library\Bee\artifacts\mvdfrm\UnityEngine.UnityTestProtocolModule.dll_30A1E249130F50C9.mvfrm
Library\Bee\artifacts\mvdfrm\UnityEngine.UnityWebRequestAssetBundleModule.dll_EC70394AD7740E1C.mvfrm
Library\Bee\artifacts\mvdfrm\UnityEngine.UnityWebRequestAudioModule.dll_319E9D90A892CAA0.mvfrm
Library\Bee\artifacts\mvdfrm\UnityEngine.UnityWebRequestModule.dll_3200F252BF9F72FA.mvfrm
Library\Bee\artifacts\mvdfrm\UnityEngine.UnityWebRequestTextureModule.dll_B0964295E6BEF475.mvfrm
Library\Bee\artifacts\mvdfrm\UnityEngine.UnityWebRequestWWWModule.dll_037FB1259B4E2331.mvfrm
Library\Bee\artifacts\mvdfrm\UnityEngine.VehiclesModule.dll_57AA13F0D821CA41.mvfrm
Library\Bee\artifacts\mvdfrm\UnityEngine.VFXModule.dll_9D74650520CE8F32.mvfrm
Library\Bee\artifacts\mvdfrm\UnityEngine.VideoModule.dll_E6611A1586306E05.mvfrm
Library\Bee\artifacts\mvdfrm\UnityEngine.VRModule.dll_D7B322463CD318D6.mvfrm
Library\Bee\artifacts\mvdfrm\UnityEngine.WindModule.dll_6391F33B6C5460B2.mvfrm
Library\Bee\artifacts\mvdfrm\UnityEngine.XRModule.dll_0A71E54AC60D6634.mvfrm
Library\Bee\artifacts\mvdfrm\Unity.Android.Gradle.dll_EA0E912CC5965006.mvfrm
Library\Bee\artifacts\mvdfrm\Unity.Android.Types.dll_CE92C1DA0A596196.mvfrm
Library\Bee\artifacts\mvdfrm\UnityEditor.Android.Extensions.dll_DB0A3525E26B3C06.mvfrm
Library\Bee\artifacts\mvdfrm\UnityEditor.WindowsStandalone.Extensions.dll_4A7417BA10939A62.mvfrm
Library\Bee\artifacts\mvdfrm\Unity.Plastic.Antlr3.Runtime.dll_BB2BD984C1207498.mvfrm
Library\Bee\artifacts\mvdfrm\Unity.Plastic.Newtonsoft.Json.dll_0501B5E1B914D31D.mvfrm
Library\Bee\artifacts\mvdfrm\Unity.VisualScripting.IonicZip.dll_7A652DDBAF5CEFD7.mvfrm
Library\Bee\artifacts\mvdfrm\Unity.VisualScripting.YamlDotNet.dll_8FB34816D1E81CD5.mvfrm
Library\Bee\artifacts\mvdfrm\Unity.VisualScripting.TextureAssets.dll_26D1716A92B57ACD.mvfrm
Library\Bee\artifacts\mvdfrm\Unity.VisualScripting.Antlr3.Runtime.dll_41206EF802B12CF4.mvfrm